Test number: Tiempo, CPU, RAM
Test 1: [12.047985553741455, 36.40833333333333, 13.838333333333333]
Test 2: [12.046858072280884, 33.82833333333333, 14.001666666666665]
Test 3: [12.049659729003906, 31.889999999999997, 13.919999999999996]
Test 4: [12.045138597488403, 30.49, 13.921666666666665]
Test 5: [12.057871580123901, 32.696666666666665, 14.069999999999999]
Test 6: [12.047806739807129, 32.574999999999996, 14.181666666666667]
Test 7: [12.051674365997314, 32.468333333333334, 14.045]
Test 8: [12.04775071144104, 31.655, 14.019999999999998]
Test 9: [12.04657506942749, 34.65666666666667, 14.12]
Test 10: [12.047856569290161, 37.09166666666667, 14.038333333333332]
Test 11: [14.061975002288818, 41.041428571428575, 14.281428571428572]
Test 12: [12.048132181167603, 41.04, 14.435]
Test 13: [12.048710346221924, 35.711666666666666, 14.441666666666665]
Test 14: [12.07959508895874, 36.20166666666666, 14.441666666666668]
Test 15: [12.047784566879272, 31.338333333333335, 14.39]
Test 16: [12.048291444778442, 33.120000000000005, 14.408333333333331]
Test 17: [12.049654006958008, 30.408333333333335, 14.328333333333333]
Test 18: [12.050325870513916, 31.488333333333333, 14.33]
Test 19: [12.047720909118652, 31.328333333333337, 14.33]
Test 20: [12.049208402633667, 30.77, 14.325000000000001]
Test 21: [12.04843807220459, 29.040000000000003, 14.301666666666668]
Test 22: [12.047459363937378, 32.39666666666667, 14.35]
Test 23: [12.047799825668335, 29.005, 14.303333333333335]
Test 24: [12.060092687606812, 28.601666666666663, 14.225000000000001]
Test 25: [12.046064138412476, 30.058333333333334, 14.238333333333337]
Test 26: [12.046552896499634, 37.30833333333333, 14.418333333333331]
Test 27: [14.066056251525879, 37.54714285714285, 14.374285714285715]
Test 28: [12.062665939331055, 36.11, 14.49333333333333]
Test 29: [12.051541328430176, 37.791666666666664, 14.566666666666665]
Test 30: [12.046669006347656, 36.52333333333333, 14.795000000000002]
Test 31: [12.051645755767822, 35.86166666666667, 14.678333333333335]
Test 32: [12.048104763031006, 34.173333333333325, 14.581666666666665]
Test 33: [12.046957015991211, 35.81, 14.564999999999998]
Test 34: [12.047695398330688, 31.478333333333335, 14.176666666666668]
Test 35: [12.04953670501709, 27.77, 14.021666666666668]
Test 36: [12.048505544662476, 28.033333333333342, 14.018333333333333]
Test 37: [12.048228025436401, 30.246666666666666, 14.095]
Test 38: [12.062323093414307, 29.978333333333328, 14.038333333333334]
Test 39: [12.06077265739441, 29.365, 14.026666666666666]
Test 40: [12.050293207168579, 27.96166666666667, 14.025]
Test 41: [12.049030780792236, 30.38333333333333, 14.058333333333335]
Test 42: [12.048807859420776, 29.02, 14.023333333333333]
Test 43: [12.046960592269897, 28.31833333333333, 14.025]
Test 44: [12.048727750778198, 28.58666666666667, 14.041666666666666]
Test 45: [12.050548553466797, 28.671666666666663, 14.028333333333334]
Test 46: [12.049241304397583, 27.90833333333333, 14.01]
Test 47: [12.050421714782715, 29.283333333333335, 14.043333333333331]
Test 48: [12.05066704750061, 27.91333333333333, 14.025]
Test 49: [12.050232410430908, 28.33, 14.026666666666666]
Test 50: [12.049437284469604, 30.223333333333333, 14.083333333333334]
Final results: [12.13104103565216, 32.19813809523809, 14.210514285714286]